01_FIREEEE_DCLK_EDGE_DET/Sim/01_iverilog/FIREEEE_DCLK_EDGE_DET_noreset.vcd
$date
	Sun Mar 08 22:12:49 2026
$end
$version
	Icarus Verilog
$end
$timescale
	1ps
$end
$scope module FIREEEE_DCLK_EDGE_DET_tb $end
$var wire 1 ! POS_DET_O $end
$var wire 1 " NEG_DET_O $end
$var wire 1 # DCLK_O $end
$var wire 8 $ DATA_O [7:0] $end
$var parameter 1 % ASYNC_RESET_EN $end
$var parameter 32 & CLK_COUNT_WIDTH $end
$var parameter 32 ' DATA_BIT_WIDTH $end
$var parameter 1 ( IN_REG_EN $end
$var parameter 1 ) OUT_REG_EN $end
$var parameter 1 * RESET_EN $end
$var reg 10 + CLK_COUNT [9:0] $end
$var reg 1 , CLK_I $end
$var reg 8 - DATA_I [7:0] $end
$var reg 1 . DCLK_I $end
$var reg 1 / N_RST_I $end
$var integer 32 0 random [31:0] $end
$var integer 32 1 urandom [31:0] $end
$scope begin dut_noreset $end
$scope module dut_noreset $end
$var wire 1 , CLK_I $end
$var wire 8 2 DATA_I [7:0] $end
$var wire 1 . DCLK_I $end
$var wire 1 3 N_RST_I $end
$var wire 1 ! POS_DET_O $end
$var wire 1 " NEG_DET_O $end
$var wire 1 # DCLK_O $end
$var wire 8 4 DATA_O [7:0] $end
$var parameter 1 5 ASYNC_RESET_EN $end
$var parameter 32 6 DATA_BIT_WIDTH $end
$var parameter 1 7 IN_REG_EN $end
$var parameter 1 8 OUT_REG_EN $end
$var parameter 1 9 RESET_EN $end
$scope begin genblk_edgedet_noreset $end
$scope module u_dclk_edge_det_no_reset $end
$var wire 1 , CLK_I $end
$var wire 8 : DATA_I [7:0] $end
$var wire 8 ; DATA_O [7:0] $end
$var wire 1 . DCLK_I $end
$var wire 1 # DCLK_O $end
$var wire 1 " NEG_DET_O $end
$var wire 1 < NEG_DET_W $end
$var wire 1 ! POS_DET_O $end
$var wire 1 = POS_DET_W $end
$var wire 1 > POS_DET_O_W $end
$var wire 1 ? NEG_DET_O_W $end
$var wire 1 @ DCLKO_W $end
$var wire 1 A DCLKI_W $end
$var wire 8 B DATAO_W [7:0] $end
$var wire 8 C DATAI_W [7:0] $end
$var parameter 32 D DATA_BIT_WIDTH $end
$var parameter 1 E IN_REG_EN $end
$var parameter 1 F OUT_REG_EN $end
$var reg 8 G DATA_R [7:0] $end
$var reg 1 H DCLK_R $end
$var reg 1 I NEG_DET_R $end
$var reg 1 J POS_DET_R $end
$scope begin genblk_inreg1_noreset $end
$var reg 8 K DATAI_R [7:0] $end
$var reg 1 A DCLKI_R $end
$upscope $end
$scope begin genblk_outreg1_noreset $end
$var reg 8 L DATAO_R [7:0] $end
$var reg 1 @ DCLKO_R $end
$var reg 1 ? NEG_DET_O_R $end
$var reg 1 > POS_DET_O_R $end
$upscope $end
$upscope $end
$upscope $end
$upscope $end
$upscope $end
$upscope $end
$enddefinitions $end
$comment Show the parameter values. $end
$dumpall
1F
1E
b1000 D
09
18
17
b1000 6
15
0*
1)
1(
b1000 '
b1010 &
1%
$end
#0
$dumpvars
b0 L
b0 K
0J
0I
0H
b0 G
b0 C
b0 B
0A
0@
0?
0>
0=
0<
b0 ;
b0 :
b0 4
03
b0 2
b0 1
b0 0
0/
0.
b0 -
0,
b0 +
b0 $
0#
0"
0!
$end
#3000
b1000111011 1
b1 +
1,
#6000
1/
0,
#9000
b11111100 1
b10 +
1,
#12000
0,
#15000
b10001 1
b11 +
1,
#18000
0,
#21000
b11000011 1
b100 +
1,
#24000
0,
#27000
b1000001110 1
1.
b101 +
1,
#30000
0,
#33000
1=
b1100001001 1
b110 +
1A
1,
#36000
0,
#39000
0=
1H
1J
b11000110 1
b111 +
1,
#42000
0,
#45000
b100100 1
b1000 +
0J
1#
1@
1!
1>
1,
#48000
0,
#51000
b10010000101010011010100100100 0
0!
0>
b111111000 1
0.
b1001 +
1,
#54000
0,
#57000
1<
b1000001111 1
b1010 +
0A
1,
#60000
0,
#63000
0<
0H
1I
b1011011011 1
b1011 +
1,
#66000
0,
#69000
b1001101011 1
b1100 +
0I
0#
0@
1"
1?
1,
#72000
0,
#75000
0"
0?
b1111000101 1
1.
b1101 +
1,
#78000
0/
0,
#81000
1=
b1100000110 1
b1110 +
1A
1,
#84000
1/
0,
#87000
0=
1H
1J
b1111011101 1
b1111 +
1,
#90000
0/
0,
#93000
b110000011 1
b10000 +
0J
1#
1@
1!
1>
1,
#96000
1/
0,
#99000
b100100 -
b100100 2
b100100 :
b11000000100010010101111010000001 0
0!
0>
b110000010 1
0.
b10001 +
1,
#102000
0,
#105000
1<
b101001100 1
b10010 +
b100100 C
b100100 K
0A
1,
#108000
0,
#111000
0<
b100100 G
0H
1I
b1110110100 1
b10011 +
1,
#114000
0,
#117000
b11101001 1
b10100 +
0I
b100100 $
b100100 4
b100100 ;
b100100 B
b100100 L
0#
0@
1"
1?
1,
#120000
0,
#123000
0"
0?
b100011 1
1.
b10101 +
1,
#126000
0,
#129000
1=
b1100001101 1
b10110 +
1A
1,
#132000
0,
#135000
0=
1H
1J
b1111001110 1
b10111 +
1,
#138000
0/
0,
#141000
b110010100 1
b11000 +
0J
1#
1@
1!
1>
1,
#144000
1/
0,
#147000
b10000001 -
b10000001 2
b10000001 :
b10000100100001001101011000001001 0
0!
0>
b111000101 1
0.
b11001 +
1,
#150000
0,
#153000
1<
b110000010 1
b11010 +
b10000001 C
b10000001 K
0A
1,
#156000
0,
#159000
0<
b10000001 G
0H
1I
b1010101001 1
b11011 +
1,
#162000
0,
#165000
b101110001 1
b11100 +
0I
b10000001 $
b10000001 4
b10000001 ;
b10000001 B
b10000001 L
0#
0@
1"
1?
1,
#168000
0,
#171000
0"
0?
b1011000 1
1.
b11101 +
1,
#174000
0,
#177000
1=
b11000110 1
b11110 +
1A
1,
#180000
0,
#183000
0=
1H
1J
b11000011 1
b11111 +
1,
#186000
0,
#189000
b1000001001 1
b100000 +
0J
1#
1@
1!
1>
1,
#192000
0,
#195000
b10001001 -
b10001001 2
b10001001 :
b10110001111100000101011001100011 0
0!
0>
b11111011 1
0.
b100001 +
1,
#198000
0,
#201000
1<
b1000110100 1
b100010 +
b10001001 C
b10001001 K
0A
1,
#204000
0,
#207000
0<
b10001001 G
0H
1I
b1101000010 1
b100011 +
1,
#210000
0,
#213000
b100110100 1
b100100 +
0I
b10001001 $
b10001001 4
b10001001 ;
b10001001 B
b10001001 L
0#
0@
1"
1?
1,
#216000
0,
#219000
0"
0?
b100100101 1
1.
b100101 +
1,
#222000
0,
#225000
1=
b100101 1
b100110 +
1A
1,
#228000
0,
#231000
0=
1H
1J
b11010 1
b100111 +
1,
#234000
0,
#237000
b10100010 1
b101000 +
0J
1#
1@
1!
1>
1,
#240000
0,
#243000
b11100011 -
b11100011 2
b11100011 :
b110101110010111101100001101 0
0!
0>
b1011000110 1
0.
b101001 +
1,
#246000
0,
#249000
1<
b110100001 1
b101010 +
b11100011 C
b11100011 K
0A
1,
#252000
0,
#255000
0<
b11100011 G
0H
1I
b100 1
b101011 +
1,
#258000
0,
#261000
b101010101 1
b101100 +
0I
b11100011 $
b11100011 4
b11100011 ;
b11100011 B
b11100011 L
0#
0@
1"
1?
1,
#264000
0,
#267000
0"
0?
b1000101111 1
1.
b101101 +
1,
#270000
0,
#273000
1=
b110010101 1
b101110 +
1A
1,
#276000
0,
#279000
0=
1H
1J
b1000111000 1
b101111 +
1,
#282000
0,
#285000
b1000001000 1
b110000 +
0J
1#
1@
1!
1>
1,
#288000
0,
#291000
b1101 -
b1101 2
b1101 :
b1000110110111111001100110001101 0
0!
0>
b110001100 1
0.
b110001 +
1,
#294000
0,
#297000
1<
b1110110 1
b110010 +
b1101 C
b1101 K
0A
1,
#300000
0,
#303000
0<
b1101 G
0H
1I
b1111001111 1
b110011 +
1,
#306000
0/
0,
#309000
b1100000011 1
b110100 +
0I
b1101 $
b1101 4
b1101 ;
b1101 B
b1101 L
0#
0@
1"
1?
1,
#312000
1/
0,
#315000
0"
0?
b1001110100 1
1.
b110101 +
1,
#318000
0,
#321000
1=
b110100111 1
b110110 +
1A
1,
#324000
0,
#327000
0=
1H
1J
b1011011111 1
b110111 +
1,
#330000
0,
#333000
b100001011 1
b111000 +
0J
1#
1@
1!
1>
1,
#336000
0,
#339000
b10110010110000101000010001100101 0
0!
0>
b1111000000 1
0.
b111001 +
1,
#342000
0/
0,
#345000
1<
b1101011000 1
b111010 +
0A
1,
#348000
1/
0,
#351000
0<
0H
1I
b1101111000 1
b111011 +
1,
#354000
0,
#357000
b1101001001 1
b111100 +
0I
0#
0@
1"
1?
1,
#360000
0,
#363000
0"
0?
b101110001 1
1.
b111101 +
1,
#366000
0,
#369000
1=
b1001000110 1
b111110 +
1A
1,
#372000
0,
#375000
0=
1H
1J
b10110 1
b111111 +
1,
#378000
0,
#381000
b11011101 1
b1000000 +
0J
1#
1@
1!
1>
1,
#384000
0,
#387000
b11100101 -
b11100101 2
b11100101 :
b10001001001101110101001000010010 0
0!
0>
b1011111010 1
0.
b1000001 +
1,
#390000
0,
#393000
1<
b1010010000 1
b1000010 +
b11100101 C
b11100101 K
0A
1,
#396000
0,
#399000
0<
b11100101 G
0H
1I
b1110100 1
b1000011 +
1,
#402000
0,
#405000
b1001100101 1
b1000100 +
0I
b11100101 $
b11100101 4
b11100101 ;
b11100101 B
b11100101 L
0#
0@
1"
1?
1,
#408000
0,
#411000
0"
0?
b11110110 1
1.
b1000101 +
1,
#414000
0,
#417000
1=
b1000011110 1
b1000110 +
1A
1,
#420000
0,
#423000
0=
1H
1J
b1111001101 1
b1000111 +
1,
#426000
0/
0,
#429000
b1110011101 1
b1001000 +
0J
1#
1@
1!
1>
1,
#432000
1/
0,
#435000
b10010010 -
b10010010 2
b10010010 :
b111100111110001100000001 0
0!
0>
b1010110100 1
0.
b1001001 +
1,
#438000
0,
#441000
1<
b1010001001 1
b1001010 +
b10010010 C
b10010010 K
0A
1,
#444000
0,
#447000
0<
b10010010 G
0H
1I
b1100101011 1
b1001011 +
1,
#450000
0,
#453000
b1100001100 1
b1001100 +
0I
b10010010 $
b10010010 4
b10010010 ;
b10010010 B
b10010010 L
0#
0@
1"
1?
1,
#456000
0,
#459000
0"
0?
b1111011011 1
1.
b1001101 +
1,
#462000
0/
0,
#465000
1=
b101100110 1
b1001110 +
1A
1,
#468000
1/
0,
#471000
0=
1H
1J
b100110111 1
b1001111 +
1,
#474000
0,
#477000
b10110101 1
b1010000 +
0J
1#
1@
1!
1>
1,
#480000
0,
#483000
b1 -
b1 2
b1 :
b110110101111100110100001101 0
0!
0>
b10110011 1
0.
b1010001 +
1,
#486000
0,
#489000
1<
b1100000001 1
b1010010 +
b1 C
b1 K
0A
1,
#492000
0,
#495000
0<
b1 G
0H
1I
b10001111 1
b1010011 +
1,
#498000
0,
#501000
b110010111 1
b1010100 +
0I
b1 $
b1 4
b1 ;
b1 B
b1 L
0#
0@
1"
1?
1,
#504000
0,
#507000
0"
0?
b110100110 1
1.
b1010101 +
1,
#510000
0,
#513000
1=
b10011111 1
b1010110 +
1A
1,
#516000
0,
#519000
0=
1H
1J
b1100011010 1
b1010111 +
1,
#522000
0,
#525000
b1000001100 1
b1011000 +
0J
1#
1@
1!
1>
1,
#528000
0,
#531000
b1101 -
b1101 2
b1101 :
b111011001000111111000101110110 0
0!
0>
b101111011 1
0.
b1011001 +
1,
#534000
0,
#537000
1<
b1101111100 1
b1011010 +
b1101 C
b1101 K
0A
1,
#540000
0,
#543000
0<
b1101 G
0H
1I
b11101000 1
b1011011 +
1,
#546000
0,
#549000
b1001101101 1
b1011100 +
0I
b1101 $
b1101 4
b1101 ;
b1101 B
b1101 L
0#
0@
1"
1?
1,
#552000
0,
#555000
0"
0?
b1000010111 1
1.
b1011101 +
1,
#558000
0,
#561000
1=
b11110110 1
b1011110 +
1A
1,
#564000
0,
#567000
0=
1H
1J
b1011001011 1
b1011111 +
1,
#570000
0,
#573000
b1001100101 1
b1100000 +
0J
1#
1@
1!
1>
1,
#576000
0,
#579000
b1110110 -
b1110110 2
b1110110 :
b11110100011011100110100111101 0
0!
0>
b1000110010 1
0.
b1100001 +
1,
#582000
0,
#585000
1<
b110011110 1
b1100010 +
b1110110 C
b1110110 K
0A
1,
#588000
0,
#591000
0<
b1110110 G
0H
1I
b1011111001 1
b1100011 +
1,
#594000
0,
#597000
b11101010 1
b1100100 +
0I
b1110110 $
b1110110 4
b1110110 ;
b1110110 B
b1110110 L
0#
0@
1"
1?
1,
#600000
0,
#603000
0"
0?
b1010100111 1
1.
b1100101 +
1,
#606000
0,
#609000
1=
b1010000011 1
b1100110 +
1A
1,
#612000
0,
#615000
0=
1H
1J
b1111100 1
b1100111 +
1,
#618000
0,
#621000
b1001000110 1
b1101000 +
0J
1#
1@
1!
1>
1,
#624000
0,
#627000
b111101 -
b111101 2
b111101 :
b1110110110101000101011111101101 0
0!
0>
b1010100000 1
0.
b1101001 +
1,
#630000
0,
#633000
1<
b100000110 1
b1101010 +
b111101 C
b111101 K
0A
1,
#636000
0,
#639000
0<
b111101 G
0H
1I
b100010110 1
b1101011 +
1,
#642000
0,
#645000
b100110001 1
b1101100 +
0I
b111101 $
b111101 4
b111101 ;
b111101 B
b111101 L
0#
0@
1"
1?
1,
#648000
0,
#651000
0"
0?
b1111011110 1
1.
b1101101 +
1,
#654000
0/
0,
#657000
1=
b1001100 1
b1101110 +
1A
1,
#660000
1/
0,
#663000
0=
1H
1J
b1011010101 1
b1101111 +
1,
#666000
0,
#669000
b100111110 1
b1110000 +
0J
1#
1@
1!
1>
1,
#672000
0,
#675000
b1101101 -
b1101101 2
b1101101 :
b1000110001011011111011110001100 0
0!
0>
b1011100 1
0.
b1110001 +
1,
#678000
0,
#681000
1<
b101011111 1
b1110010 +
b1101101 C
b1101101 K
0A
1,
#684000
0,
#687000
0<
b1101101 G
0H
1I
b10111011 1
b1110011 +
1,
#690000
0,
#693000
b1001111010 1
b1110100 +
0I
b1101101 $
b1101101 4
b1101101 ;
b1101101 B
b1101101 L
0#
0@
1"
1?
1,
#696000
0,
#699000
0"
0?
b1111011001 1
1.
b1110101 +
1,
#702000
0/
0,
#705000
1=
b110001101 1
b1110110 +
1A
1,
#708000
1/
0,
#711000
0=
1H
1J
b111000001 1
b1110111 +
1,
#714000
0,
#717000
b1010100101 1
b1111000 +
0J
1#
1@
1!
1>
1,
#720000
0,
#723000
b1100 -
b1100 2
b1100 :
b1111100111111011110100111111001 0
0!
0>
b1001000101 1
0.
b1111001 +
1,
#726000
0,
#729000
1<
b111001111 1
b1111010 +
b1100 C
b1100 K
0A
1,
#732000
0,
#735000
0<
b1100 G
0H
1I
b110101011 1
b1111011 +
1,
#738000
0,
#741000
b11000101 1
b1111100 +
0I
b1100 $
b1100 4
b1100 ;
b1100 B
b1100 L
0#
0@
1"
1?
1,
#744000
0,
#747000
0"
0?
b101100010 1
1.
b1111101 +
1,
#750000
0,
#753000
1=
b110110100 1
b1111110 +
1A
1,
#756000
0,
#759000
0=
1H
1J
b1011100010 1
b1111111 +
1,
#762000
0,
#765000
b1001111010 1
b10000000 +
0J
1#
1@
1!
1>
1,
#768000
0,
#771000
b1111001 -
b1111001 2
b1111001 :
b11100011001101110010010011000110 0
0!
0>
b110011000 1
0.
b10000001 +
1,
#774000
0,
#777000
1<
b1001000110 1
b10000010 +
b1111001 C
b1111001 K
0A
1,
#780000
0,
#783000
0<
b1111001 G
0H
1I
b1101000100 1
b10000011 +
1,
#786000
0,
#789000
b1000010001 1
b10000100 +
0I
b1111001 $
b1111001 4
b1111001 ;
b1111001 B
b1111001 L
0#
0@
1"
1?
1,
#792000
0,
#795000
0"
0?
b1110100100 1
1.
b10000101 +
1,
#798000
0,
#801000
1=
b100101110 1
b10000110 +
1A
1,
#804000
0,
#807000
0=
1H
1J
b111110000 1
b10000111 +
1,
#810000
0,
#813000
b101111110 1
b10001000 +
0J
1#
1@
1!
1>
1,
#816000
0,
#819000
b11000110 -
b11000110 2
b11000110 :
b11100010111101111000010011000101 0
0!
0>
b1010011100 1
0.
b10001001 +
1,
#822000
0,
#825000
1<
b1010001110 1
b10001010 +
b11000110 C
b11000110 K
0A
1,
#828000
0,
#831000
0<
b11000110 G
0H
1I
b11001010 1
b10001011 +
1,
#834000
0,
#837000
b10100 1
b10001100 +
0I
b11000110 $
b11000110 4
b11000110 ;
b11000110 B
b11000110 L
0#
0@
1"
1?
1,
#840000
0,
#843000
0"
0?
b1101011010 1
1.
b10001101 +
1,
#846000
0,
#849000
1=
b1101101 1
b10001110 +
1A
1,
#852000
0,
#855000
0=
1H
1J
b1011100010 1
b10001111 +
1,
#858000
0,
#861000
b101101000 1
b10010000 +
0J
1#
1@
1!
1>
1,
#864000
0,
#867000
b11000101 -
b11000101 2
b11000101 :
b11010101000100111101001010101010 0
0!
0>
b1100010111 1
0.
b10010001 +
1,
#870000
0,
#873000
1<
b1100010100 1
b10010010 +
b11000101 C
b11000101 K
0A
1,
#876000
0,
#879000
0<
b11000101 G
0H
1I
b1000 1
b10010011 +
1,
#882000
0,
#885000
b10101110 1
b10010100 +
0I
b11000101 $
b11000101 4
b11000101 ;
b11000101 B
b11000101 L
0#
0@
1"
1?
1,
#888000
0,
#891000
0"
0?
b1110100001 1
1.
b10010101 +
1,
#894000
0,
#897000
1=
b10011000 1
b10010110 +
1A
1,
#900000
0,
#903000
0=
1H
1J
b1110011101 1
b10010111 +
1,
#906000
0,
#909000
b11010101 1
b10011000 +
0J
1#
1@
1!
1>
1,
#912000
0,
#915000
b10101010 -
b10101010 2
b10101010 :
b1110010101011111111011111100101 0
0!
0>
b11100111 1
0.
b10011001 +
1,
#918000
0,
#921000
1<
b1110000000 1
b10011010 +
b10101010 C
b10101010 K
0A
1,
#924000
0,
#927000
0<
b10101010 G
0H
1I
b1101011000 1
b10011011 +
1,
#930000
0,
#933000
b1100011000 1
b10011100 +
0I
b10101010 $
b10101010 4
b10101010 ;
b10101010 B
b10101010 L
0#
0@
1"
1?
1,
#936000
0,
#939000
0"
0?
b10001000 1
1.
b10011101 +
1,
#942000
0,
#945000
1=
b111111110 1
b10011110 +
1A
1,
#948000
0,
#951000
0=
1H
1J
b1111011000 1
b10011111 +
1,
#954000
0/
0,
#957000
b1011000010 1
b10100000 +
0J
1#
1@
1!
1>
1,
#960000
1/
0,
#963000
b1100101 -
b1100101 2
b1100101 :
b10111011110100100111001001110111 0
0!
0>
b101100001 1
0.
b10100001 +
1,
#966000
0,
#969000
1<
b1011111110 1
b10100010 +
b1100101 C
b1100101 K
0A
1,
#972000
0,
#975000
0<
b1100101 G
0H
1I
b1001000100 1
b10100011 +
1,
#978000
0,
#981000
b1011000 1
b10100100 +
0I
b1100101 $
b1100101 4
b1100101 ;
b1100101 B
b1100101 L
0#
0@
1"
1?
1,
#984000
0,
#987000
0"
0?
b110000110 1
1.
b10100101 +
1,
#990000
0,
#993000
1=
b1011011 1
b10100110 +
1A
1,
#996000
0,
#999000
0=
1H
1J
b10001 1
b10100111 +
1,
